[gd_scene load_steps=6 format=2]

[ext_resource path="res://Clerracks Splash screen.png" type="Texture" id=1]
[ext_resource path="res://Title.gd" type="Script" id=2]
[ext_resource path="res://CrimsonPro-Black.ttf" type="DynamicFontData" id=3]

[sub_resource type="StyleBoxFlat" id=1]
bg_color = Color( 0, 0, 0, 1 )

[sub_resource type="DynamicFont" id=2]
size = 60
use_filter = true
font_data = ExtResource( 3 )

[node name="Title" type="Sprite"]
position = Vector2( -104, -344 )
texture = ExtResource( 1 )
centered = false
script = ExtResource( 2 )

[node name="Button" type="Button" parent="."]
margin_left = 712.0
margin_top = 960.0
margin_right = 1424.0
margin_bottom = 1136.0
custom_styles/hover = SubResource( 1 )
custom_styles/pressed = SubResource( 1 )
custom_styles/focus = SubResource( 1 )
custom_styles/disabled = SubResource( 1 )
custom_styles/normal = SubResource( 1 )
custom_fonts/font = SubResource( 2 )
text = "Click to Start"
__meta__ = {
"_edit_use_anchors_": false
}
